…
    ## ── Conflicts ─────────────────────────────────────────────────────────────────────────── tidyverse_conflicts() ──
    ## x dplyr::filter() masks stats::filter()
    ## x dplyr::lag()    masks stats::lag()

### Problem 1

``` r
data("instacart")

instacart = instacart
tibble::as_tibble(instacart)
```

    ## # A tibble: 1,384,617 x 15
    ##    order_id product_id add_to_cart_ord… reordered user_id eval_set order_number
    ##       <int>      <int>            <int>     <int>   <int> <chr>           <int>
    ##  1        1      49302                1         1  112108 train               4
    ##  2        1      11109                2         1  112108 train               4
    ##  3        1      10246                3         0  112108 train               4
    ##  4        1      49683                4         0  112108 train               4
    ##  5        1      43633                5         1  112108 train               4
    ##  6        1      13176                6         0  112108 train               4
    ##  7        1      47209                7         0  112108 train               4
    ##  8        1      22035                8         1  112108 train               4
    ##  9       36      39612                1         0   79431 train              23
    ## 10       36      19660                2         1   79431 train              23
    ## # … with 1,384,607 more rows, and 8 more variables: order_dow <int>,
    ## #   order_hour_of_day <int>, days_since_prior_order <int>, product_name <chr>,
    ## #   aisle_id <int>, department_id <int>, aisle <chr>, department <chr>
…
``` r
instacart %>% 
  count(aisle) %>% 
  arrange(desc(n))
```

    ## # A tibble: 134 x 2
    ##    aisle                              n
    ##    <chr>                          <int>
    ##  1 fresh vegetables              150609
    ##  2 fresh fruits                  150473
    ##  3 packaged vegetables fruits     78493
    ##  4 yogurt                         55240
    ##  5 packaged cheese                41699
    ##  6 water seltzer sparkling water  36617
    ##  7 milk                           32644
    ##  8 chips pretzels                 31269
    ##  9 soy lactosefree                26240
    ## 10 bread                          23635
    ## # … with 124 more rows
…
### Problem 3

``` r
data("ny_noaa")
```

``` r
ny_noaa %>% 
  count(snow) %>%
  arrange(desc(n))
```

    ## # A tibble: 282 x 2
    ##     snow       n
    ##    <int>   <int>
    ##  1     0 2008508
    ##  2    NA  381221
    ##  3    25   31022
    ##  4    13   23095
    ##  5    51   18274
    ##  6    76   10173
    ##  7     8    9962
    ##  8     5    9748
    ##  9    38    9197
    ## 10     3    8790
    ## # … with 272 more rows
…
